{
  "$schema": "http://json-schema.org/draft-04/schema#",
  "type": "object",
  "properties": {
    "id": {
      "type": "integer"
    },
    "day": {
      "type": "string"
    },
    "price": {
      "type": "number"
    }
  },
  "required": ["id", "day", "price"]
}
