{
  "festival": "Tomorrowland",
  "tiquets":["silver","copper","rose","platinium"],
  "areas":[
    {
      "restoration":[
        {
          "name":"BurgerPlanet",
          "food":["pizzas","hamburgers","chips","refreshments","ice creams"]
        },
        {
          "name":"Little Italia",
          "food":["pasta","pitzzas","lasagna","wine"]
        }
      ]
    },
    {
      "accommodation":[
        {
          "name":"Hilton",
          "type":"Hotel",
          "bedrooms":["individual","double","triple","quadruple","suite"]
        },
        {
          "name":"DreamVille",
          "type":"camp",
          "tents":["individual","double","group"]

        }
      ]
    },
    {
      "stages":[
        {
          "name":"Mainstage",
          "music":"electronic",
          "days":[
            {
              "day1":[
                {
                  "artists":["MartinGarrix","Hardwell","Chansmokers","DJSnake","Afrojack","SteveAngello","Marshmello","Kygo"]
                }
              ]
            },
            {
              "day2":[
                {
                  "artists":["NickyRomero","Alesso","jauz","Mesto","CalvinHarris","R3hab","DavidGuetta","OliverHeldens"]
                }
              ]
            },
            {
              "day3":[
                {
                  "artists":["DonDiablo","ArminVanBuuren","DimitriVegas","W&W","KSHMR","Skrillex","Headhunderz","Zedd"]
                }
              ]
            }
          ]
        },
        {
          "name":"Alternativestage",
          "music":"alternative",
          "days":[
            {
              "day1":[
                {
                  "artists":[]
                }
              ]
            },
            {
              "day2":[
                {
                  "artists":[]
                }
              ]
            },
            {
              "day3":[
                {
                  "artists":[]
                }
              ]
            }

          ]
        }
      ]


    }





  ]
}